<?xml version="1.0" encoding="utf-8"?>
<!-- Generator: Adobe Illustrator 22.1.0, SVG Export Plug-In . SVG Version: 6.00 Build 0)  -->
<svg version="1.1" id="Layer_1" xmlns="http://www.w3.org/2000/svg" xmlns:xlink="http://www.w3.org/1999/xlink" x="0px" y="0px"
	 viewBox="0 0 187.7 115.9" style="enable-background:new 0 0 187.7 115.9;" xml:space="preserve">
<style type="text/css">
	.st0{fill:none;}
	.st1{fill:#F26419;}
	.st2{fill:#F6AE2D;}
	.st3{fill:#F34213;}
</style>
<g>
	<g>
		<rect x="43.5" y="21.7" class="st0" width="29" height="7.2"/>
		<path class="st1" d="M103.6,29H86.9V18.1c0-5.8-5.1-10.9-10.9-10.9H39.8C34.1,7.2,29,12.3,29,18.1V29H10.9C5.1,29,0,34.1,0,39.8
			V58h87.3c1.9-9.1,6-17.6,12.1-24.7C100.8,31.8,102.2,30.3,103.6,29z M72.5,29h-29v-7.2h29V29z"/>
		<path class="st2" d="M86.2,68.8c0-1.2,0-2.4,0.1-3.6H72.5v10.9c0,2-1.6,3.6-3.6,3.6H47.1c-2,0-3.6-1.6-3.6-3.6V65.2H0v32.6
			c0,5.8,5.1,10.9,10.9,10.9h92.8c-0.5-0.5-1-0.9-1.5-1.4C91.9,97,86.2,83.3,86.2,68.8z"/>
		<path class="st3" d="M187.7,68.8c0,26-21.1,47.1-47.1,47.1S93.5,94.8,93.5,68.8c0-23.5,17.3-43.1,39.8-46.5v-7.8H127
			c-1.5,0-2.7-1.2-2.7-2.7V2.7c0-1.5,1.2-2.7,2.7-2.7h27.2c1.5,0,2.7,1.2,2.7,2.7v9.1c0,1.5-1.2,2.7-2.7,2.7h-6.3v7.8
			c8.5,1.3,16.2,4.9,22.6,10.1l6.2-6.2c1.1-1.1,2.8-1.1,3.8,0l6.4,6.4c1.1,1.1,1.1,2.8,0,3.8l-6.7,6.7l-0.1,0.1
			C184.9,50.6,187.7,59.4,187.7,68.8z M147.8,77V42.7c0-1.5-1.2-2.7-2.7-2.7H136c-1.5,0-2.7,1.2-2.7,2.7V77c0,1.5,1.2,2.7,2.7,2.7
			h9.1C146.6,79.7,147.8,78.5,147.8,77z"/>
	</g>
</g>
</svg>
